# Blender MTL File: 'None'
# Material Count: 9

newmtl Eyeball
Ns 72.549020
Ka 0.000000 0.000000 0.000000
Kd 0.756080 0.756080 0.756080
Ks 0.687100 0.687100 0.687100
Ni 1.500000
d 1.000000
illum 2

newmtl Eyetrans
Ns 54.901961
Ka 0.000000 0.000000 0.000000
Kd 0.793760 0.793760 0.787440
Ks 0.022200 0.041000 0.131600
Ni 1.500000
d 0.000000
illum 2

newmtl InnerMouth
Ns 98.039216
Ka 0.000000 0.000000 0.000000
Kd 0.756080 0.756080 0.756080
Ks 0.000000 0.000000 0.000000
Ni 1.500000
d 1.000000
illum 2

newmtl Iris
Ns 70.588235
Ka 0.000000 0.000000 0.000000
Kd 0.756080 0.756080 0.756080
Ks 0.272900 0.272900 0.272900
Ni 1.500000
d 1.000000
illum 2

newmtl Nails
Ns 98.039216
Ka 0.000000 0.000000 0.000000
Kd 0.533360 0.527040 0.417280
Ks 0.000000 0.000000 0.000000
Ni 1.500000
d 1.000000
illum 2

newmtl Nose
Ns 98.039216
Ka 0.000000 0.000000 0.000000
Kd 0.756080 0.756080 0.756080
Ks 0.000000 0.000000 0.000000
Ni 1.500000
d 1.000000
illum 2

newmtl Pelt
Ns 98.039216
Ka 0.000000 0.000000 0.000000
Kd 0.756080 0.756080 0.756080
Ks 0.000000 0.000000 0.000000
Ni 1.500000
d 1.000000
illum 2

newmtl Pupil
Ns 98.039216
Ka 0.000000 0.000000 0.000000
Kd 0.000000 0.000000 0.000000
Ks 0.000000 0.000000 0.000000
Ni 1.500000
d 1.000000
illum 2

newmtl Teeth
Ns 98.039216
Ka 0.000000 0.000000 0.000000
Kd 0.756080 0.756080 0.756080
Ks 0.000000 0.000000 0.000000
Ni 1.500000
d 1.000000
illum 2
